\relax 
\providecommand\hyper@newdestlabel[2]{}
\providecommand\HyperFirstAtBeginDocument{\AtBeginDocument}
\HyperFirstAtBeginDocument{\ifx\hyper@anchor\@undefined
\global\let\oldcontentsline\contentsline
\gdef\contentsline#1#2#3#4{\oldcontentsline{#1}{#2}{#3}}
\global\let\oldnewlabel\newlabel
\gdef\newlabel#1#2{\newlabelxx{#1}#2}
\gdef\newlabelxx#1#2#3#4#5#6{\oldnewlabel{#1}{{#2}{#3}}}
\AtEndDocument{\ifx\hyper@anchor\@undefined
\let\contentsline\oldcontentsline
\let\newlabel\oldnewlabel
\fi}
\fi}
\global\let\hyper@last\relax 
\gdef\HyperFirstAtBeginDocument#1{#1}
\providecommand\HyField@AuxAddToFields[1]{}
\providecommand\HyField@AuxAddToCoFields[2]{}
\@writefile{toc}{\contentsline {section}{\numberline {1}Gi\IeC {\'\ohorn }i thi\IeC {\d \ecircumflex }u v\IeC {\'\acircumflex }n \IeC {\dj }\IeC {\`\ecircumflex }}{2}{section.1}}
\@writefile{toc}{\contentsline {section}{\numberline {2}Gi\IeC {\'\ohorn }i thi\IeC {\d \ecircumflex }u c\IeC {\^o}ng c\IeC {\d u} v\IeC {\`a} ki\IeC {\'\ecircumflex }n th\IeC {\'\uhorn }c li\IeC {\^e}n quan}{2}{section.2}}
\@writefile{toc}{\contentsline {subsection}{\numberline {2.1}S\IeC {\ohorn } l\IeC {\uhorn }\IeC {\d \ohorn }c v\IeC {\`\ecircumflex } T\IeC {\'\i }nh To\IeC {\'a}n Song Song}{2}{subsection.2.1}}
\@writefile{toc}{\contentsline {subsection}{\numberline {2.2}Gi\IeC {\h a}i Thu\IeC {\d \acircumflex }t K-Mean}{2}{subsection.2.2}}
\@writefile{toc}{\contentsline {subsection}{\numberline {2.3}B\IeC {\d \ocircumflex } d\IeC {\~\uhorn } li\IeC {\d \ecircumflex }u hoa Iris}{3}{subsection.2.3}}
\@writefile{toc}{\contentsline {subsection}{\numberline {2.4}T\IeC {\h \ocircumflex }ng qu\IeC {\'a}t v\IeC {\`\ecircumflex } l\IeC {\d \acircumflex }p tr\IeC {\`\i }nh CUDA}{3}{subsection.2.4}}
\@writefile{toc}{\contentsline {subsubsection}{\numberline {2.4.1}Gi\IeC {\'\ohorn }i thi\IeC {\d \ecircumflex }u v\IeC {\`\ecircumflex } GPU}{3}{subsubsection.2.4.1}}
\@writefile{toc}{\contentsline {subsubsection}{\numberline {2.4.2}Kh\IeC {\'a}i qu\IeC {\'a}t v\IeC {\`\ecircumflex } CUDA}{3}{subsubsection.2.4.2}}
\@writefile{lof}{\contentsline {figure}{\numberline {1}{\ignorespaces L\IeC {\d \acircumflex }p tr\IeC {\`\i }nh tr\IeC {\^e}n CUDA\relax }}{4}{figure.caption.4}}
\@writefile{toc}{\contentsline {section}{\numberline {3}N\IeC {\d \ocircumflex }i dung c\IeC {\^o}ng vi\IeC {\d \ecircumflex }c \IeC {\dj }\IeC {\~a} l\IeC {\`a}m}{4}{section.3}}
\@writefile{toc}{\contentsline {subsection}{\numberline {3.1}C\IeC {\^o}ng vi\IeC {\d \ecircumflex }c \IeC {\dj }\IeC {\~a} th\IeC {\d \uhorn }c hi\IeC {\d \ecircumflex }n}{4}{subsection.3.1}}
\@writefile{toc}{\contentsline {subsection}{\numberline {3.2}H\IeC {\uhorn }\IeC {\'\ohorn }ng d\IeC {\~\acircumflex }n ch\IeC {\d a}y ch\IeC {\uhorn }\IeC {\ohorn }ng tr\IeC {\`\i }nh}{5}{subsection.3.2}}
\@writefile{toc}{\contentsline {section}{\numberline {4}Ph\IeC {\^a}n t\IeC {\'\i }ch v\IeC {\`a} k\IeC {\'\ecircumflex }t lu\IeC {\d \acircumflex }n}{6}{section.4}}
\@writefile{toc}{\contentsline {subsection}{\numberline {4.1}Ph\IeC {\^a}n t\IeC {\'\i }ch ch\IeC {\uhorn }\IeC {\ohorn }ng tr\IeC {\`\i }nh v\IeC {\`a} Speedup}{6}{subsection.4.1}}
\@writefile{toc}{\contentsline {subsection}{\numberline {4.2}K\IeC {\'\ecircumflex }t lu\IeC {\d \acircumflex }n}{7}{subsection.4.2}}
\@writefile{toc}{\contentsline {section}{\numberline {5}Ngu\IeC {\`\ocircumflex }n tham kh\IeC {\h a}o}{7}{section.5}}
\newlabel{LastPage}{{}{7}{}{page.7}{}}
\xdef\lastpage@lastpage{7}
\xdef\lastpage@lastpageHy{7}
